pipelined_cache_computer/tb_computer.vcd
$date
	Sun May  3 17:54:31 2026
$end
$version
	Icarus Verilog
$end
$timescale
	100ps
$end
$scope module tb_computer $end
$var wire 32 ! writedata [31:0] $end
$var wire 1 " memwrite $end
$var wire 32 # dataadr [31:0] $end
$var reg 1 $ cache_en $end
$var reg 1 % clk $end
$var reg 1 & intr $end
$var reg 1 ' reset $end
$var integer 32 ( cache_hits [31:0] $end
$var integer 32 ) cache_misses [31:0] $end
$var integer 32 * cycle [31:0] $end
$var integer 32 + instr_count [31:0] $end
$scope module dut $end
$var wire 1 $ cache_en $end
$var wire 1 % clk $end
$var wire 1 & intr $end
$var wire 1 ' reset $end
$var wire 32 , writedata [31:0] $end
$var wire 32 - readdata [31:0] $end
$var wire 32 . pc [31:0] $end
$var wire 1 " memwrite $end
$var wire 1 / memread $end
$var wire 1 0 mem_stall $end
$var wire 32 1 instr [31:0] $end
$var wire 32 2 final_dmem_writedata [31:0] $end
$var wire 1 3 final_dmem_memwrite $end
$var wire 1 4 final_dmem_memread $end
$var wire 32 5 final_dmem_addr [31:0] $end
$var wire 32 6 dmem_writedata [31:0] $end
$var wire 1 7 dmem_ready $end
$var wire 32 8 dmem_readdata [31:0] $end
$var wire 1 9 dmem_memwrite $end
$var wire 1 : dmem_memread $end
$var wire 32 ; dmem_addr [31:0] $end
$var wire 32 < dataadr [31:0] $end
$var wire 32 = cache_readdata [31:0] $end
$var wire 1 > cache_mem_stall $end
$scope module dcache $end
$var wire 1 % clk $end
$var wire 1 ? cpu_memread $end
$var wire 1 @ cpu_memwrite $end
$var wire 1 A miss $end
$var wire 1 ' reset $end
$var wire 30 B tag [29:0] $end
$var wire 1 7 dmem_ready $end
$var wire 32 C dmem_readdata [31:0] $end
$var wire 32 D cpu_writedata [31:0] $end
$var wire 32 E cpu_readdata [31:0] $end
$var wire 32 F cpu_addr [31:0] $end
$var reg 32 G dmem_addr [31:0] $end
$var reg 1 : dmem_memread $end
$var reg 1 9 dmem_memwrite $end
$var reg 32 H dmem_writedata [31:0] $end
$var reg 1 I hit $end
$var reg 4 J hit_index [3:0] $end
$var reg 1 > mem_stall $end
$var reg 1 K next_state $end
$var reg 4 L replace_ptr [3:0] $end
$var reg 1 M state $end
$scope begin $ivl_for_loop2 $end
$var integer 32 N i [31:0] $end
$upscope $end
$scope begin $ivl_for_loop3 $end
$var integer 32 O i [31:0] $end
$upscope $end
$upscope $end
$scope module dmem $end
$var wire 32 P addr [31:0] $end
$var wire 1 % clk $end
$var wire 1 4 memread $end
$var wire 1 3 memwrite $end
$var wire 32 Q readdata [31:0] $end
$var wire 1 ' reset $end
$var wire 32 R writedata [31:0] $end
$var parameter 32 S LATENCY $end
$var parameter 32 T n $end
$var parameter 32 U r $end
$var reg 4 V delay_counter [3:0] $end
$var reg 1 7 dmem_ready $end
$upscope $end
$scope module imem $end
$var wire 8 W addr [7:0] $end
$var wire 32 X readdata [31:0] $end
$var parameter 32 Y n $end
$var parameter 32 Z r $end
$scope begin $unm_blk_29 $end
$upscope $end
$upscope $end
$scope module mips_pipelined $end
$var wire 1 % clk $end
$var wire 32 [ instrF [31:0] $end
$var wire 1 & intr $end
$var wire 1 0 mem_stall $end
$var wire 1 / memreadM $end
$var wire 32 \ readdataM [31:0] $end
$var wire 1 ' reset $end
$var wire 5 ] writeregW [4:0] $end
$var wire 5 ^ writeregM [4:0] $end
$var wire 5 _ writeregE [4:0] $end
$var wire 32 ` writedataM [31:0] $end
$var wire 1 a stallW $end
$var wire 1 b stallM $end
$var wire 1 c stallF $end
$var wire 1 d stallE $end
$var wire 1 e stallD $end
$var wire 5 f rtE [4:0] $end
$var wire 5 g rtD [4:0] $end
$var wire 5 h rsE [4:0] $end
$var wire 5 i rsD [4:0] $end
$var wire 1 j regwriteW $end
$var wire 1 k regwriteM $end
$var wire 1 l regwriteE $end
$var wire 1 m regwriteD $end
$var wire 1 n regdstD $end
$var wire 32 o pcF [31:0] $end
$var wire 1 " memwriteM $end
$var wire 1 p memwriteD $end
$var wire 1 q memtoregM $end
$var wire 1 r memtoregE $end
$var wire 1 s memtoregD $end
$var wire 1 t jumpD $end
$var wire 1 u jrD $end
$var wire 1 v jalD $end
$var wire 32 w instrD [31:0] $end
$var wire 2 x forwardbE [1:0] $end
$var wire 1 y forwardbD $end
$var wire 2 z forwardaE [1:0] $end
$var wire 1 { forwardaD $end
$var wire 1 | flushE $end
$var wire 1 } flushD $end
$var wire 1 ~ branchD $end
$var wire 1 !" alusrcD $end
$var wire 32 "" aluoutM [31:0] $end
$var wire 4 #" alucontrolD [3:0] $end
$var wire 1 $" Exception_Flag $end
$scope module c $end
$var wire 6 %" functD [5:0] $end
$var wire 6 &" opD [5:0] $end
$var wire 1 m regwriteD $end
$var wire 1 n regdstD $end
$var wire 1 p memwriteD $end
$var wire 1 s memtoregD $end
$var wire 1 t jumpD $end
$var wire 1 u jrD $end
$var wire 1 v jalD $end
$var wire 1 ~ branchD $end
$var wire 1 !" alusrcD $end
$var wire 2 '" aluopD [1:0] $end
$var wire 4 (" alucontrolD [3:0] $end
$scope module ad $end
$var wire 6 )" funct [5:0] $end
$var wire 2 *" aluop [1:0] $end
$var parameter 32 +" n $end
$var reg 4 ," alucontrol [3:0] $end
$upscope $end
$scope module md $end
$var wire 6 -" funct [5:0] $end
$var wire 1 u jr $end
$var wire 6 ." op [5:0] $end
$var wire 1 m regwrite $end
$var wire 1 n regdst $end
$var wire 1 p memwrite $end
$var wire 1 s memtoreg $end
$var wire 1 t jump $end
$var wire 1 v jal $end
$var wire 1 ~ branch $end
$var wire 1 !" alusrc $end
$var wire 2 /" aluop [1:0] $end
$var parameter 32 0" n $end
$var reg 9 1" controls [8:0] $end
$upscope $end
$upscope $end
$scope module dp $end
$var wire 4 2" alucontrolD [3:0] $end
$var wire 1 !" alusrcD $end
$var wire 1 ~ branchD $end
$var wire 1 % clk $end
$var wire 32 3" instrF [31:0] $end
$var wire 1 v jalD $end
$var wire 1 u jrD $end
$var wire 1 t jumpD $end
$var wire 1 s memtoregD $end
$var wire 1 p memwriteD $end
$var wire 1 4" pcsrcD $end
$var wire 32 5" readdataM [31:0] $end
$var wire 1 n regdstD $end
$var wire 1 m regwriteD $end
$var wire 1 ' reset $end
$var wire 1 6" zeroE $end
$var wire 5 7" writeregE_normal [4:0] $end
$var wire 5 8" writeregE [4:0] $end
$var wire 1 a stallW $end
$var wire 1 b stallM $end
$var wire 1 c stallF $end
$var wire 1 d stallE $end
$var wire 1 e stallD $end
$var wire 32 9" srcbD [31:0] $end
$var wire 32 :" srcb3E [31:0] $end
$var wire 32 ;" srcb2E [31:0] $end
$var wire 32 <" srcaD [31:0] $end
$var wire 32 =" srca2E [31:0] $end
$var wire 32 >" signimmshD [31:0] $end
$var wire 32 ?" signimmD [31:0] $end
$var wire 5 @" rtD [4:0] $end
$var wire 5 A" rsD [4:0] $end
$var wire 32 B" resultW [31:0] $end
$var wire 5 C" rdD [4:0] $end
$var wire 32 D" pcplus4F [31:0] $end
$var wire 32 E" pcnextbrFD [31:0] $end
$var wire 32 F" pcjumpFD [31:0] $end
$var wire 32 G" pcbranchD [31:0] $end
$var wire 2 H" forwardbE [1:0] $end
$var wire 1 y forwardbD $end
$var wire 2 I" forwardaE [1:0] $end
$var wire 1 { forwardaD $end
$var wire 1 | flushE $end
$var wire 1 } flushD $end
$var wire 1 J" equalD $end
$var wire 32 K" compbD [31:0] $end
$var wire 32 L" compaD [31:0] $end
$var wire 32 M" aluoutE [31:0] $end
$var wire 1 $" Exception_Flag $end
$var reg 32 N" EPC [31:0] $end
$var reg 4 O" alucontrolE [3:0] $end
$var reg 32 P" aluoutM [31:0] $end
$var reg 32 Q" aluoutW [31:0] $end
$var reg 1 R" alusrcE $end
$var reg 32 S" instrD [31:0] $end
$var reg 1 T" jalE $end
$var reg 1 U" jalM $end
$var reg 1 V" jalW $end
$var reg 1 r memtoregE $end
$var reg 1 q memtoregM $end
$var reg 1 W" memtoregW $end
$var reg 1 X" memwriteE $end
$var reg 1 " memwriteM_out $end
$var reg 32 Y" pcF [31:0] $end
$var reg 32 Z" pcnextFD [31:0] $end
$var reg 32 [" pcplus4D [31:0] $end
$var reg 32 \" pcplus4E [31:0] $end
$var reg 32 ]" pcplus4M [31:0] $end
$var reg 32 ^" pcplus4W [31:0] $end
$var reg 5 _" rdE [4:0] $end
$var reg 32 `" readdataW [31:0] $end
$var reg 1 a" regdstE $end
$var reg 1 l regwriteE $end
$var reg 1 k regwriteM $end
$var reg 1 j regwriteW $end
$var reg 5 b" rsE [4:0] $end
$var reg 5 c" rtE [4:0] $end
$var reg 32 d" signimmE [31:0] $end
$var reg 32 e" srcaE [31:0] $end
$var reg 32 f" srcbE [31:0] $end
$var reg 32 g" writedataM [31:0] $end
$var reg 5 h" writeregM [4:0] $end
$var reg 5 i" writeregW [4:0] $end
$scope module alu $end
$var wire 4 j" alucontrol [3:0] $end
$var wire 1 % clk $end
$var wire 1 6" zero $end
$var wire 32 k" sumSlt [31:0] $end
$var wire 32 l" condinvb [31:0] $end
$var wire 32 m" b [31:0] $end
$var wire 32 n" a [31:0] $end
$var parameter 32 o" n $end
$var reg 64 p" HiLo [63:0] $end
$var reg 32 q" result [31:0] $end
$upscope $end
$scope module comp $end
$var wire 32 r" a [31:0] $end
$var wire 32 s" b [31:0] $end
$var wire 1 J" eq $end
$var parameter 32 t" n $end
$upscope $end
$scope module forwardamux $end
$var wire 32 u" d0 [31:0] $end
$var wire 32 v" d2 [31:0] $end
$var wire 2 w" s [1:0] $end
$var wire 32 x" d1 [31:0] $end
$var parameter 32 y" n $end
$var reg 32 z" y [31:0] $end
$upscope $end
$scope module forwardbmux $end
$var wire 32 {" d0 [31:0] $end
$var wire 32 |" d2 [31:0] $end
$var wire 2 }" s [1:0] $end
$var wire 32 ~" d1 [31:0] $end
$var parameter 32 !# n $end
$var reg 32 "# y [31:0] $end
$upscope $end
$scope module pcbrmux $end
$var wire 32 ## D0 [31:0] $end
$var wire 32 $# D1 [31:0] $end
$var wire 1 4" S $end
$var wire 32 %# Y [31:0] $end
$var parameter 32 &# n $end
$upscope $end
$scope module resmux $end
$var wire 32 '# d0 [31:0] $end
$var wire 32 (# d1 [31:0] $end
$var wire 32 )# d2 [31:0] $end
$var wire 2 *# s [1:0] $end
$var parameter 32 +# n $end
$var reg 32 ,# y [31:0] $end
$upscope $end
$scope module rf $end
$var wire 1 % clk $end
$var wire 5 -# ra1 [4:0] $end
$var wire 5 .# ra2 [4:0] $end
$var wire 5 /# wa3 [4:0] $end
$var wire 32 0# wd3 [31:0] $end
$var wire 1 j we3 $end
$var wire 32 1# rd2 [31:0] $end
$var wire 32 2# rd1 [31:0] $end
$var integer 32 3# i [31:0] $end
$upscope $end
$scope module se $end
$var wire 16 4# A [15:0] $end
$var wire 32 5# Y [31:0] $end
$var parameter 32 6# i $end
$var parameter 32 7# n $end
$upscope $end
$scope module srcbmux $end
$var wire 32 8# D0 [31:0] $end
$var wire 32 9# D1 [31:0] $end
$var wire 1 R" S $end
$var wire 32 :# Y [31:0] $end
$var parameter 32 ;# n $end
$upscope $end
$scope module wrmux $end
$var wire 5 <# D0 [4:0] $end
$var wire 5 =# D1 [4:0] $end
$var wire 1 a" S $end
$var wire 5 ># Y [4:0] $end
$var parameter 32 ?# n $end
$upscope $end
$upscope $end
$scope module h $end
$var wire 1 $" Exception_Flag $end
$var wire 1 ~ branchD $end
$var wire 1 @# branchstall $end
$var wire 1 } flushD $end
$var wire 1 | flushE $end
$var wire 1 { forwardaD $end
$var wire 1 y forwardbD $end
$var wire 1 & intr $end
$var wire 1 A# lwstall $end
$var wire 1 0 mem_stall $end
$var wire 1 r memtoregE $end
$var wire 1 q memtoregM $end
$var wire 1 l regwriteE $end
$var wire 1 k regwriteM $end
$var wire 1 j regwriteW $end
$var wire 5 B# rsD [4:0] $end
$var wire 5 C# rsE [4:0] $end
$var wire 5 D# rtD [4:0] $end
$var wire 5 E# rtE [4:0] $end
$var wire 1 e stallD $end
$var wire 1 d stallE $end
$var wire 1 c stallF $end
$var wire 1 b stallM $end
$var wire 1 a stallW $end
$var wire 5 F# writeregE [4:0] $end
$var wire 5 G# writeregM [4:0] $end
$var wire 5 H# writeregW [4:0] $end
$var reg 2 I# forwardaE [1:0] $end
$var reg 2 J# forwardbE [1:0] $end
$upscope $end
$upscope $end
$upscope $end
$scope begin $unm_blk_80 $end
$upscope $end
$upscope $end
$enddefinitions $end
$comment Show the parameter values. $end
$dumpall
b101 ?#
b100000 ;#
b100000 7#
b10000 6#
b100000 +#
b100000 &#
b100000 !#
b100000 y"
b100000 t"
b100000 o"
b100000 0"
b100000 +"
b1000 Z
b100000 Y
b1000 U
b100000 T
b1010 S
$end
#0
$dumpvars
b0 J#
b0 I#
b0 H#
b0 G#
b0 F#
b0 E#
b0 D#
b0 C#
b0 B#
0A#
0@#
b0 >#
b0 =#
b0 <#
b0 :#
b0 9#
b0 8#
b0 5#
b0 4#
b100000 3#
b0 2#
b0 1#
b0 0#
b0 /#
b0 .#
b0 -#
b0 ,#
b0 *#
b0 )#
b0 (#
b0 '#
b100 %#
b0 $#
b100 ##
b0 "#
b0 ~"
b0 }"
b0 |"
b0 {"
b0 z"
b0 x"
b0 w"
b0 v"
b0 u"
b0 s"
b0 r"
b0 q"
b0 p"
b0 n"
b0 m"
b0 l"
b0 k"
b0 j"
b0 i"
b0 h"
b0 g"
b0 f"
b0 e"
b0 d"
b0 c"
b0 b"
0a"
b0 `"
b0 _"
b0 ^"
b0 ]"
b0 \"
b0 ["
b100 Z"
b0 Y"
0X"
0W"
0V"
0U"
0T"
b0 S"
0R"
b0 Q"
b0 P"
b0 O"
b0 N"
b0 M"
b0 L"
b0 K"
1J"
b0 I"
b0 H"
b0 G"
b0 F"
b100 E"
b100 D"
b0 C"
b0 B"
b0 A"
b0 @"
b0 ?"
b0 >"
b0 ="
b0 <"
b0 ;"
b0 :"
b0 9"
b0 8"
b0 7"
16"
bx 5"
04"
b100000000111010000000011110000 3"
b10 2"
b110000010 1"
b10 /"
b0 ."
b0 -"
b10 ,"
b10 *"
b0 )"
b10 ("
b10 '"
b0 &"
b0 %"
0$"
b10 #"
b0 ""
0!"
0~
0}
0|
0{
b0 z
0y
b0 x
b0 w
0v
0u
0t
0s
0r
0q
0p
b0 o
1n
1m
0l
0k
0j
b0 i
b0 h
b0 g
b0 f
0e
0d
0c
0b
0a
b0 `
b0 _
b0 ^
b0 ]
bx \
b100000000111010000000011110000 [
b100000000111010000000011110000 X
b0 W
b0 V
b0 R
bx Q
b0 P
b10000 O
b10000 N
0M
b0 L
0K
b0 J
0I
b0 H
b0 G
b0 F
bx E
b0 D
bx C
b0 B
0A
0@
0?
0>
bx =
b0 <
b0 ;
0:
09
bx 8
07
b0 6
b0 5
04
03
b0 2
b100000000111010000000011110000 1
00
0/
b0 .
bx -
b0 ,
b0 +
b0 *
b0 )
b0 (
1'
0&
0%
1$
b0 #
0"
b0 !
$end
#50
b10000 O
1%
#100
0%
#150
b10000 O
1%
#200
0%
#220
0'
#250
0n
1!"
b0 '"
b0 *"
b0 /"
b101000000 1"
b1111000000 >"
b11110000 ?"
b11110000 5#
b1000 Z"
b11101000000001111000000 F"
b11101 g
b11101 @"
b11101 .#
b11101 D#
b11110000 4#
b110000 %"
b110000 )"
b110000 -"
b1000 &"
b1000 ."
b1000 E"
b1000 %#
b100000000001000000000000000100 1
b100000000001000000000000000100 X
b100000000001000000000000000100 [
b100000000001000000000000000100 3"
b1 W
bx `"
bx (#
b10 O"
b10 j"
1a"
1l
b1111000100 G"
b1111000100 $#
b100 ["
b100000000111010000000011110000 w
b100000000111010000000011110000 S"
b1000 D"
b1000 ##
b100 .
b100 o
b100 Y"
b1 *
1%
#300
0%
#350
b10000 >"
b1100 Z"
b100 ?"
b100 5#
b11101 _
b11101 8"
b11101 F#
b11110000 k"
b11110000 l"
06"
b11110000 M"
b11110000 q"
b1100 E"
b1100 %#
b100000000001010000000000000110 1
b100000000001010000000000000110 X
b100000000001010000000000000110 [
b100000000001010000000000000110 3"
b10 W
b100000000000000010000 F"
b100 g
b100 @"
b100 .#
b100 D#
b100 4#
b100 %"
b100 )"
b100 -"
b11101 7"
b11101 >#
b11110000 :"
b11110000 m"
b11110000 :#
b1100 D"
b1100 ##
b1000 .
b1000 o
b1000 Y"
b11000 G"
b11000 $#
b1000 ["
b100000000001000000000000000100 w
b100000000001000000000000000100 S"
b100 \"
b11101 f
b11101 c"
b11101 <#
b11101 E#
b11110000 d"
b11110000 9#
0a"
1R"
1k
b1 +
b10 *
1%
#400
0%
#450
b11000 >"
b10000 N
b11110000 5
b11110000 P
b100 _
b100 8"
b100 F#
b100 k"
b100 l"
b100 M"
b100 q"
b110 ?"
b110 5#
b10000 Z"
b111100 B
b11110000 ;
b11110000 G
b100 7"
b100 >#
b100 :"
b100 m"
b100 :#
b101000000000000011000 F"
b101 g
b101 @"
b101 .#
b101 D#
b110 4#
b110 %"
b110 )"
b110 -"
b10000 E"
b10000 %#
b1100000000000000000000001001 1
b1100000000000000000000001001 X
b1100000000000000000000001001 [
b1100000000000000000000001001 3"
b11 W
1j
b100 ]"
b11101 ^
b11101 h"
b11101 G#
b11110000 #
b11110000 <
b11110000 F
b11110000 ""
b11110000 P"
b11110000 v"
b11110000 |"
b1000 \"
b100 f
b100 c"
b100 <#
b100 E#
b100 d"
b100 9#
b100100 G"
b100100 $#
b1100 ["
b100000000001010000000000000110 w
b100000000001010000000000000110 S"
b10000 D"
b10000 ##
b1100 .
b1100 o
b1100 Y"
b10 +
b11 *
1%
#500
0%
#550
0!"
1t
b100000100 1"
b100100 >"
b100100 Z"
b1001 ?"
b1001 5#
b101 _
b101 8"
b101 F#
b110 k"
b110 l"
b110 M"
b110 q"
b10000 N
b100 5
b100 P
b10100 E"
b10100 %#
b10101100000000100000000001010100 1
b10101100000000100000000001010100 X
b10101100000000100000000001010100 [
b10101100000000100000000001010100 3"
b100 W
b100100 F"
b0 g
b0 @"
b0 .#
b0 D#
b1001 4#
b1001 %"
b1001 )"
b1001 -"
1v
b11 &"
b11 ."
b101 7"
b101 >#
b110 :"
b110 m"
b110 :#
b1 B
b100 ;
b100 G
b11110000 B"
b11110000 x"
b11110000 ~"
b11110000 ,#
b11110000 0#
b10100 D"
b10100 ##
b10000 .
b10000 o
b10000 Y"
b110100 G"
b110100 $#
b10000 ["
b1100000000000000000000001001 w
b1100000000000000000000001001 S"
b1100 \"
b101 f
b101 c"
b101 <#
b101 E#
b110 d"
b110 9#
b1000 ]"
b100 ^
b100 h"
b100 G#
b100 #
b100 <
b100 F
b100 ""
b100 P"
b100 v"
b100 |"
b100 ^"
b100 )#
b11101 ]
b11101 i"
b11101 /#
b11101 H#
b11110000 Q"
b11110000 '#
b11 +
b100 *
1%
#600
0%
#650
1n
0t
b10 '"
b10 *"
b10 /"
b110000010 1"
b0 >"
b110 5
b110 P
b0 k"
b0 l"
16"
b0 M"
b0 q"
b0 ?"
b0 5#
b101000 Z"
b100 B"
b100 x"
b100 ~"
b100 ,#
b100 0#
b110 ;
b110 G
b11111 _
b11111 8"
b11111 F#
b0 7"
b0 >#
b0 :"
b0 m"
b0 :#
b0 F"
b0 4#
b0 %"
b0 )"
b0 -"
0v
b0 &"
b0 ."
b101000 E"
b101000 %#
b100011101111011111111111110100 1
b100011101111011111111111110100 X
b100011101111011111111111110100 [
b100011101111011111111111110100 3"
b1001 W
b1000 ^"
b1000 )#
b100 ]
b100 i"
b100 /#
b100 H#
b100 Q"
b100 '#
b1100 ]"
b101 ^
b101 h"
b101 G#
b110 #
b110 <
b110 F
b110 ""
b110 P"
b110 v"
b110 |"
1T"
b10000 \"
b0 f
b0 c"
b0 <#
b0 E#
b1001 d"
b1001 9#
0R"
b10100 G"
b10100 $#
b10100 ["
b0 w
b0 S"
b101000 D"
b101000 ##
b100100 .
b100100 o
b100100 Y"
b100 +
b101 *
1%
#700
0%
#750
0n
1!"
b0 '"
b0 *"
b0 /"
b101000000 1"
b11110000 L"
b11110000 r"
1J"
b11110000 K"
b11110000 s"
b11111111111111111111111111010000 >"
b101100 Z"
b11110000 <"
b11110000 2#
b11110000 9"
b11110000 1#
b11111111111111111111111111110100 ?"
b11111111111111111111111111110100 5#
b10000 N
b0 5
b0 P
b101100 E"
b101100 %#
b10101111101111110000000000001000 1
b10101111101111110000000000001000 X
b10101111101111110000000000001000 [
b10101111101111110000000000001000 3"
b1010 W
b1110111101111111111111010000 F"
b11101 i
b11101 A"
b11101 -#
b11101 B#
b11101 g
b11101 @"
b11101 .#
b11101 D#
b11111 C"
b1111111111110100 4#
b110100 %"
b110100 )"
b110100 -"
b1000 &"
b1000 ."
b0 _
b0 8"
b0 F#
b0 B
b0 ;
b0 G
b110 B"
b110 x"
b110 ~"
b110 ,#
b110 0#
b101100 D"
b101100 ##
b101000 .
b101000 o
b101000 Y"
b11111111111111111111111111111000 G"
b11111111111111111111111111111000 $#
b101000 ["
b100011101111011111111111110100 w
b100011101111011111111111110100 S"
0T"
b10100 \"
b0 d"
b0 9#
1a"
b10000 ]"
1U"
b11111 ^
b11111 h"
b11111 G#
b0 #
b0 <
b0 F
b0 ""
b0 P"
b0 v"
b0 |"
b1100 ^"
b1100 )#
b101 ]
b101 i"
b101 /#
b101 H#
b110 Q"
b110 '#
b110 *
1%
#800
0%
#850
0m
1p
b1010000 1"
0J"
b0 K"
b0 s"
b100000 >"
b11101 _
b11101 8"
b11101 F#
b11111111111111111111111111110100 l"
06"
b11100100 M"
b11100100 q"
b0 9"
b0 1#
b1000 ?"
b1000 5#
b110000 Z"
b10000 B"
b10000 x"
b10000 ~"
b10000 ,#
b10000 0#
b11110000 ;"
b11110000 "#
b11110000 8#
b11100100 k"
b11110000 ="
b11110000 n"
b11110000 z"
b11101 7"
b11101 >#
b11111111111111111111111111110100 :"
b11111111111111111111111111110100 m"
b11111111111111111111111111110100 :#
b1110111111000000000000100000 F"
b11111 g
b11111 @"
b11111 .#
b11111 D#
b0 C"
b1000 4#
b1000 %"
b1000 )"
b1000 -"
b101011 &"
b101011 ."
b110000 E"
b110000 %#
b10101111101001000000000000000100 1
b10101111101001000000000000000100 X
b10101111101001000000000000000100 [
b10101111101001000000000000000100 3"
b1011 W
b10000 ^"
b10000 )#
b10 *#
1V"
b11111 ]
b11111 i"
b11111 /#
b11111 H#
b0 Q"
b0 '#
b10100 ]"
0U"
b0 ^
b0 h"
b0 G#
b101000 \"
b11111 _"
b11111 =#
b11101 f
b11101 c"
b11101 <#
b11101 E#
b11101 h
b11101 b"
b11101 C#
b11111111111111111111111111110100 d"
b11111111111111111111111111110100 9#
b11110000 f"
b11110000 {"
b11110000 e"
b11110000 u"
0a"
1R"
b1001100 G"
b1001100 $#
b101100 ["
b10101111101111110000000000001000 w
b10101111101111110000000000001000 S"
b110000 D"
b110000 ##
b101100 .
b101100 o
b101100 Y"
b101 +
b111 *
1%
#900
b10000 K"
b10000 s"
b10000 9"
b10000 1#
0%
#950
b100 K"
b100 s"
b10000 >"
b11100100 L"
b11100100 r"
b110100 Z"
b100 9"
b100 1#
b100 ?"
b100 5#
b11111 _
b11111 8"
b11111 F#
b1000 l"
1{
b10000 N
b11110000 2
b11110000 R
b11100100 5
b11100100 P
b11101100 M"
b11101100 q"
b110100 E"
b110100 %#
b10101111101001010000000000000000 1
b10101111101001010000000000000000 X
b10101111101001010000000000000000 [
b10101111101001010000000000000000 3"
b1100 W
b1110100100000000000000010000 F"
b100 g
b100 @"
b100 .#
b100 D#
b100 4#
b100 %"
b100 )"
b100 -"
b11111 7"
b11111 >#
b1000 :"
b1000 m"
b1000 :#
b111001 B
b11110000 6
b11110000 H
b11100100 ;
b11100100 G
b11101100 k"
b11100100 ="
b11100100 n"
b11100100 z"
b10000 ;"
b10000 "#
b10000 8#
b0 B"
b0 x"
b0 ~"
b0 ,#
b0 0#
b10 z
b10 I"
b10 w"
b10 I#
b110100 D"
b110100 ##
b110000 .
b110000 o
b110000 Y"
b1000000 G"
b1000000 $#
b110000 ["
b10101111101001000000000000000100 w
b10101111101001000000000000000100 S"
b101100 \"
b0 _"
b0 =#
b11111 f
b11111 c"
b11111 <#
b11111 E#
b1000 d"
b1000 9#
b10000 f"
b10000 {"
1X"
0l
b101000 ]"
b11101 ^
b11101 h"
b11101 G#
b11110000 !
b11110000 ,
b11110000 D
b11110000 `
b11110000 g"
b11100100 #
b11100100 <
b11100100 F
b11100100 ""
b11100100 P"
b11100100 v"
b11100100 |"
b10100 ^"
b10100 )#
b0 *#
0V"
b0 ]
b0 i"
b0 /#
b0 H#
b110 +
b1000 *
1%
#1000
0%
#1050
1c
1e
13
1d
1b
1a
10
19
1K
1>
1A
b110 K"
b110 s"
b0 >"
b10000 N
b10000 2
b10000 R
b11101100 5
b11101100 P
b100 _
b100 8"
b100 F#
b100 l"
b11101000 M"
b11101000 q"
b110 9"
b110 1#
b0 ?"
b0 5#
b111000 Z"
b11100100 B"
b11100100 x"
b11100100 ~"
b11100100 ,#
b11100100 0#
b11110000 L"
b11110000 r"
b111011 B
b10000 6
b10000 H
b11101100 ;
b11101100 G
b11101000 k"
b11100100 ="
b11100100 n"
b11100100 z"
1@
0{
b100 7"
b100 >#
b1 z
b1 I"
b1 w"
b1 I#
b100 :"
b100 m"
b100 :#
b100 ;"
b100 "#
b100 8#
b1110100101000000000000000000 F"
b101 g
b101 @"
b101 .#
b101 D#
b0 4#
b0 %"
b0 )"
b0 -"
b111000 E"
b111000 %#
b1100000000000000000000000110 1
b1100000000000000000000000110 X
b1100000000000000000000000110 [
b1100000000000000000000000110 3"
b1101 W
b101000 ^"
b101000 )#
b11101 ]
b11101 i"
b11101 /#
b11101 H#
b11100100 Q"
b11100100 '#
b101100 ]"
b11111 ^
b11111 h"
b11111 G#
b10000 !
b10000 ,
b10000 D
b10000 `
b10000 g"
b11101100 #
b11101100 <
b11101100 F
b11101100 ""
b11101100 P"
b11101100 v"
b11101100 |"
1"
0k
b110000 \"
b100 f
b100 c"
b100 <#
b100 E#
b100 d"
b100 9#
b100 f"
b100 {"
b110100 G"
b110100 $#
b110100 ["
b10101111101001010000000000000000 w
b10101111101001010000000000000000 S"
b111000 D"
b111000 ##
b110100 .
b110100 o
b110100 Y"
b111 +
b1001 *
1%
#1100
b11100100 L"
b11100100 r"
b11100100 <"
b11100100 2#
0%
#1150
19
1>
1M
b1 V
b1 )
b1010 *
1%
#1200
0%
#1250
b10 V
b1011 *
1%
#1300
0%
#1350
b11 V
b1100 *
1%
#1400
0%
#1450
b100 V
b1101 *
1%
#1500
0%
#1550
b101 V
b1110 *
1%
#1600
0%
#1650
b110 V
b1111 *
1%
#1700
0%
#1750
b111 V
b10000 *
1%
#1800
0%
#1850
b1000 V
b10001 *
1%
#1900
0%
#1950
b1001 V
b10010 *
1%
#2000
0%
#2050
0K
19
1>
b10000 8
b10000 C
b10000 Q
b0 V
17
b10011 *
1%
#2100
0%
#2150
0c
0e
0d
0b
0a
00
b10000 -
b10000 \
b10000 5"
0A
b10000 =
b10000 E
1I
b10000 N
0K
19
0>
b1 L
0M
b1 V
07
b10100 *
1%
#2200
0%
#2250
1m
0!"
0p
1t
b100000100 1"
1c
1e
1d
1b
1a
10
bx -
bx \
bx 5"
1K
1>
1A
bx =
bx E
bx 8
bx C
bx Q
1J"
b0 L"
b0 r"
b0 K"
b0 s"
b11000 >"
b10000 N
0I
b100 2
b100 R
b11101000 5
b11101000 P
b101 _
b101 8"
b101 F#
b11100100 k"
b0 l"
b11100100 M"
b11100100 q"
b0 <"
b0 2#
b0 9"
b0 1#
b110 ?"
b110 5#
b11000 Z"
b11101100 B"
b11101100 x"
b11101100 ~"
b11101100 ,#
b11101100 0#
b111010 B
19
b100 6
b100 H
b11101000 ;
b11101000 G
b101 7"
b101 >#
b0 z
b0 I"
b0 w"
b0 I#
b0 :"
b0 m"
b0 :#
b110 ;"
b110 "#
b110 8#
b11000 F"
b0 i
b0 A"
b0 -#
b0 B#
b0 g
b0 @"
b0 .#
b0 D#
b110 4#
b110 %"
b110 )"
b110 -"
1v
b11 &"
b11 ."
b111100 E"
b111100 %#
b100100000000100000 1
b100100000000100000 X
b100100000000100000 [
b100100000000100000 3"
b1110 W
b10 V
b101100 ^"
b101100 )#
b11111 ]
b11111 i"
b11111 /#
b11111 H#
b11101100 Q"
b11101100 '#
b10000 `"
b10000 (#
0j
b110000 ]"
b100 ^
b100 h"
b100 G#
b100 !
b100 ,
b100 D
b100 `
b100 g"
b11101000 #
b11101000 <
b11101000 F
b11101000 ""
b11101000 P"
b11101000 v"
b11101000 |"
b110100 \"
b101 f
b101 c"
b101 <#
b101 E#
b0 d"
b0 9#
b110 f"
b110 {"
b11100100 e"
b11100100 u"
b1010000 G"
b1010000 $#
b111000 ["
b1100000000000000000000000110 w
b1100000000000000000000000110 S"
b111100 D"
b111100 ##
b111000 .
b111000 o
b111000 Y"
b1 (
b1000 +
b10101 *
1%
#2300
0%
#2350
19
1>
1M
b11 V
b10 )
b10110 *
1%
#2400
0%
#2450
b100 V
b10111 *
1%
#2500
0%
#2550
b101 V
b11000 *
1%
#2600
0%
#2650
b110 V
b11001 *
1%
#2700
0%
#2750
b111 V
b11010 *
1%
#2800
0%
#2850
b1000 V
b11011 *
1%
#2900
0%
#2950
b1001 V
b11100 *
1%
#3000
0%
#3050
0K
19
1>
b100 8
b100 C
b100 Q
b0 V
17
b11101 *
1%
#3100
0%
#3150
0c
0e
0d
0b
0a
00
b100 -
b100 \
b100 5"
0A
b100 =
b100 E
b1 J
1I
b10000 N
0K
19
0>
b10 L
0M
b1 V
07
b11110 *
1%
#3200
0%
